<?xml version="1.0" encoding="UTF-8"?>
<!-- Created with Inkscape (http://www.inkscape.org/) -->
<svg width="50" height="50" version="1.1" viewBox="0 0 13.229 13.229" xmlns="http://www.w3.org/2000/svg" xmlns:cc="http://creativecommons.org/ns#" xmlns:dc="http://purl.org/dc/elements/1.1/" xmlns:rdf="http://www.w3.org/1999/02/22-rdf-syntax-ns#">
 <metadata>
  <rdf:RDF>
   <cc:Work rdf:about="">
    <dc:format>image/svg+xml</dc:format>
    <dc:type rdf:resource="http://purl.org/dc/dcmitype/StillImage"/>
    <dc:title/>
   </cc:Work>
  </rdf:RDF>
 </metadata>
 <g transform="translate(0 -283.77)">
  <g transform="matrix(1.3643 0 0 1.3389 92.675 1641.6)" fill="none" stroke="#ffffff" stroke-width=".39152">
   <path d="m-58.493-1009.3-4.586-3.2585-1.5118 1.074v-0.7973h-1.3203v1.7355l-1.7542 1.2463" style="paint-order:normal"/>
   <path d="m-59.415-1010v4.2668h-7.3291v-4.2668" style="paint-order:normal"/>
  </g>
 </g>
</svg>
