<?xml version="1.0" encoding="UTF-8"?>
<!-- Created with Inkscape (http://www.inkscape.org/) -->
<svg width="50" height="50" version="1.1" viewBox="0 0 13.229 13.229" xmlns="http://www.w3.org/2000/svg" xmlns:cc="http://creativecommons.org/ns#" xmlns:dc="http://purl.org/dc/elements/1.1/" xmlns:rdf="http://www.w3.org/1999/02/22-rdf-syntax-ns#">
 <metadata>
  <rdf:RDF>
   <cc:Work rdf:about="">
    <dc:format>image/svg+xml</dc:format>
    <dc:type rdf:resource="http://purl.org/dc/dcmitype/StillImage"/>
    <dc:title/>
   </cc:Work>
  </rdf:RDF>
 </metadata>
 <g transform="translate(0 -283.77)">
  <g transform="matrix(1.5812 0 0 1.5812 94.852 1712.9)" fill="none" stroke="#ffffff">
   <path d="m-54.709-900.66v-0.41183c0-0.59326-0.4775-1.0708-1.0708-1.0708h-2.8009c-0.59326 0-1.0708 0.4775-1.0708 1.0708v2.8009c0 0.59326 0.47749 1.0708 1.0708 1.0708h2.8009c0.59326 0 1.0708-0.4775 1.0708-1.0708v-0.41228" stroke-width=".33467" style="paint-order:normal"/>
   <path d="m-57.395-899.67h5.2619" stroke-width=".33467"/>
   <path d="m-53.356-898.28 1.2995-1.3959-1.2995-1.3959" stroke-width=".33467" style="paint-order:normal"/>
  </g>
 </g>
</svg>
